{"name":"Verificar la consulta de usuario unico","id":"buscar-usuario-unico;verificar-la-consulta-de-usuario-unico","testSteps":[{"number":1,"description":"Given conecta con el servicio para la consulta del usuario","duration":154,"startTime":"2021-02-21T12:33:49.206-05:00[America/Bogota]","result":"SUCCESS","precondition":false,"level":0},{"number":2,"description":"When busca el usuario con los datos\r\n| id |\r\n| 3 |","duration":5647,"startTime":"2021-02-21T12:33:49.364-05:00[America/Bogota]","result":"SUCCESS","precondition":false,"level":0,"children":[{"number":3,"description":"Usuario realizar consulta de usuario unico","duration":5026,"startTime":"2021-02-21T12:33:49.984-05:00[America/Bogota]","result":"SUCCESS","precondition":false,"level":1,"children":[{"number":4,"description":"usuario executes a GET on the resource /api/users?3","duration":4980,"startTime":"2021-02-21T12:33:50.025-05:00[America/Bogota]","result":"SUCCESS","precondition":false,"level":2,"children":[{"number":5,"description":"GET https://reqres.in/api/users?3\r","duration":1,"startTime":"2021-02-21T12:33:55.004-05:00[America/Bogota]","result":"SUCCESS","restQuery":{"method":"GET","path":"https://reqres.in/api/users?3\r","content":"\r","contentType":"null","requestHeaders":"Accept\u003d*/*\r","requestCookies":"\r","responseHeaders":"Date: Sun, 21 Feb 2021 17:33:54 GMT\r\nContent-Type: application/json; charset\u003dutf-8\r\nTransfer-Encoding: chunked\r\nConnection: keep-alive\r\nSet-Cookie: __cfduid\u003dd46c860d067a0b3f33df6295a50d6d52a1613928834; expires\u003dTue, 23-Mar-21 17:33:54 GMT; path\u003d/; domain\u003d.reqres.in; HttpOnly; SameSite\u003dLax; Secure\r\nX-Powered-By: Express\r\nAccess-Control-Allow-Origin: *\r\nEtag: W/\"3e4-2RLXvr5wTg9YQ6aH95CkYoFNuO8\"\r\nVia: 1.1 vegur\r\nCache-Control: max-age\u003d14400\r\nCF-Cache-Status: MISS\r\ncf-request-id: 086740be4500000441e8b73000000001\r\nExpect-CT: max-age\u003d604800, report-uri\u003d\"https://report-uri.cloudflare.com/cdn-cgi/beacon/expect-ct\"\r\nReport-To: {\"group\":\"cf-nel\",\"max_age\":604800,\"endpoints\":[{\"url\":\"https:\\/\\/a.nel.cloudflare.com\\/report?s\u003d1lio4TsUjLqIb76NGhyz8AYRXFvlARWeChBCPzhSWaDH4hohH4epPKroHuOlLWQbJ1pdytLE9xUtxPtkDZ%2FWHBIzSj9RKppAumQ%3D\"}]}\r\nNEL: {\"report_to\":\"cf-nel\",\"max_age\":604800}\r\nVary: Accept-Encoding\r\nServer: cloudflare\r\nCF-RAY: 625237106f1f0441-MIA\r\nContent-Encoding: gzip\r","responseCookies":"__cfduid\u003dd46c860d067a0b3f33df6295a50d6d52a1613928834;Path\u003d/;Domain\u003d.reqres.in;Secure;HttpOnly;Expires\u003d23/03/21 17:33\r","responseBody":"{\n    \"page\": 1,\n    \"per_page\": 6,\n    \"total\": 12,\n    \"total_pages\": 2,\n    \"data\": [\n        {\n            \"id\": 1,\n            \"email\": \"george.bluth@reqres.in\",\n            \"first_name\": \"George\",\n            \"last_name\": \"Bluth\",\n            \"avatar\": \"https://reqres.in/img/faces/1-image.jpg\"\n        },\n        {\n            \"id\": 2,\n            \"email\": \"janet.weaver@reqres.in\",\n            \"first_name\": \"Janet\",\n            \"last_name\": \"Weaver\",\n            \"avatar\": \"https://reqres.in/img/faces/2-image.jpg\"\n        },\n        {\n            \"id\": 3,\n            \"email\": \"emma.wong@reqres.in\",\n            \"first_name\": \"Emma\",\n            \"last_name\": \"Wong\",\n            \"avatar\": \"https://reqres.in/img/faces/3-image.jpg\"\n        },\n        {\n            \"id\": 4,\n            \"email\": \"eve.holt@reqres.in\",\n            \"first_name\": \"Eve\",\n            \"last_name\": \"Holt\",\n            \"avatar\": \"https://reqres.in/img/faces/4-image.jpg\"\n        },\n        {\n            \"id\": 5,\n            \"email\": \"charles.morris@reqres.in\",\n            \"first_name\": \"Charles\",\n            \"last_name\": \"Morris\",\n            \"avatar\": \"https://reqres.in/img/faces/5-image.jpg\"\n        },\n        {\n            \"id\": 6,\n            \"email\": \"tracey.ramos@reqres.in\",\n            \"first_name\": \"Tracey\",\n            \"last_name\": \"Ramos\",\n            \"avatar\": \"https://reqres.in/img/faces/6-image.jpg\"\n        }\n    ],\n    \"support\": {\n        \"url\": \"https://reqres.in/#support-heading\",\n        \"text\": \"To keep ReqRes free, contributions towards server costs are appreciated!\"\n    }\n}","statusCode":200},"precondition":false,"level":3}]}]}]},{"number":6,"description":"Then valida el codigo de respuesta de la consulta","duration":180,"startTime":"2021-02-21T12:33:55.012-05:00[America/Bogota]","result":"SUCCESS","precondition":false,"level":0,"children":[{"number":7,"description":"Deberia ver la siguiente respuesta: ","duration":42,"startTime":"2021-02-21T12:33:55.148-05:00[America/Bogota]","result":"SUCCESS","precondition":false,"level":1}]}],"userStory":{"id":"buscar-usuario-unico","storyName":"Buscar usuario unico","path":"src/test/resources/features/buscar_usuario_unico.feature","narrative":"  El Usuario requiere verificar la correcta funcionalidad de la peticion buscar usuario unico\n  y validar la respuesta esperada","type":"feature"},"featureTag":{"name":"Features/Buscar usuario unico","type":"feature","displayName":"Features/Buscar usuario unico"},"title":"Verificar la consulta de usuario unico","tags":[{"name":"Buscar usuario unico","type":"feature","displayName":"Buscar usuario unico"}],"startTime":"2021-02-21T12:33:48.932-05:00[America/Bogota]","duration":6261,"projectKey":"","isManualTestingUpToDate":false,"manual":false,"testSource":"Cucumber","actors":[{"name":"usuario","can":["call an API at https://reqres.in"]}],"result":"SUCCESS"}