{"name":"Servicio Rest","id":"servicio-rest;servicio-rest","testSteps":[{"number":1,"description":"Given ingresa a la pagina","duration":160,"startTime":"2021-02-19T17:14:52.687-05:00[America/Bogota]","result":"SUCCESS","precondition":false,"level":0},{"number":2,"description":"When busca al usuario con datos\r\n| nombre | apellido |\r\n| Cara | Gaylord |","duration":4915,"startTime":"2021-02-19T17:14:52.852-05:00[America/Bogota]","result":"SUCCESS","precondition":false,"level":0,"children":[{"number":3,"description":"Usuario realizar busqueda","duration":4338,"startTime":"2021-02-19T17:14:53.427-05:00[America/Bogota]","result":"SUCCESS","precondition":false,"level":1,"children":[{"number":4,"description":"usuario executes a GET on the resource /api/users?page\u003d2","duration":4103,"startTime":"2021-02-19T17:14:53.467-05:00[America/Bogota]","result":"SUCCESS","precondition":false,"level":2,"children":[{"number":5,"description":"GET https://reqres.in/api/users?page\u003d2\r","duration":1,"startTime":"2021-02-19T17:14:57.569-05:00[America/Bogota]","result":"SUCCESS","restQuery":{"method":"GET","path":"https://reqres.in/api/users?page\u003d2\r","content":"\r","contentType":"null","requestHeaders":"Accept\u003d*/*\r","requestCookies":"\r","responseHeaders":"Date: Fri, 19 Feb 2021 22:14:56 GMT\r\nContent-Type: application/json; charset\u003dutf-8\r\nTransfer-Encoding: chunked\r\nConnection: keep-alive\r\nSet-Cookie: __cfduid\u003dd28431a5e030c7d8da9a669030ba405981613772896; expires\u003dSun, 21-Mar-21 22:14:56 GMT; path\u003d/; domain\u003d.reqres.in; HttpOnly; SameSite\u003dLax; Secure\r\nX-Powered-By: Express\r\nAccess-Control-Allow-Origin: *\r\nEtag: W/\"406-ut0vzoCuidvyMf8arZpMpJ6ZRDw\"\r\nVia: 1.1 vegur\r\nCache-Control: max-age\u003d14400\r\nCF-Cache-Status: HIT\r\nAge: 1783\r\ncf-request-id: 085df552c00000b58e9ca78000000001\r\nExpect-CT: max-age\u003d604800, report-uri\u003d\"https://report-uri.cloudflare.com/cdn-cgi/beacon/expect-ct\"\r\nReport-To: {\"endpoints\":[{\"url\":\"https:\\/\\/a.nel.cloudflare.com\\/report?s\u003d9puOFkZgu6YMcapqHxEbjEW2It6dSXcEtdUEpuVD%2FiYCh8Dfe5Jda6%2BQP0JMOiYo%2BMmnSPBOBEHr86VMLsLh4%2FQAGfSwujXbr1A%3D\"}],\"max_age\":604800,\"group\":\"cf-nel\"}\r\nNEL: {\"max_age\":604800,\"report_to\":\"cf-nel\"}\r\nVary: Accept-Encoding\r\nServer: cloudflare\r\nCF-RAY: 624357fdfd9db58e-BOG\r\nContent-Encoding: gzip\r","responseCookies":"__cfduid\u003dd28431a5e030c7d8da9a669030ba405981613772896;Path\u003d/;Domain\u003d.reqres.in;Secure;HttpOnly;Expires\u003d21/03/21 22:14\r","responseBody":"{\n    \"page\": 2,\n    \"per_page\": 6,\n    \"total\": 12,\n    \"total_pages\": 2,\n    \"data\": [\n        {\n            \"id\": 7,\n            \"email\": \"michael.lawson@reqres.in\",\n            \"first_name\": \"Michael\",\n            \"last_name\": \"Lawson\",\n            \"avatar\": \"https://reqres.in/img/faces/7-image.jpg\"\n        },\n        {\n            \"id\": 8,\n            \"email\": \"lindsay.ferguson@reqres.in\",\n            \"first_name\": \"Lindsay\",\n            \"last_name\": \"Ferguson\",\n            \"avatar\": \"https://reqres.in/img/faces/8-image.jpg\"\n        },\n        {\n            \"id\": 9,\n            \"email\": \"tobias.funke@reqres.in\",\n            \"first_name\": \"Tobias\",\n            \"last_name\": \"Funke\",\n            \"avatar\": \"https://reqres.in/img/faces/9-image.jpg\"\n        },\n        {\n            \"id\": 10,\n            \"email\": \"byron.fields@reqres.in\",\n            \"first_name\": \"Byron\",\n            \"last_name\": \"Fields\",\n            \"avatar\": \"https://reqres.in/img/faces/10-image.jpg\"\n        },\n        {\n            \"id\": 11,\n            \"email\": \"george.edwards@reqres.in\",\n            \"first_name\": \"George\",\n            \"last_name\": \"Edwards\",\n            \"avatar\": \"https://reqres.in/img/faces/11-image.jpg\"\n        },\n        {\n            \"id\": 12,\n            \"email\": \"rachel.howell@reqres.in\",\n            \"first_name\": \"Rachel\",\n            \"last_name\": \"Howell\",\n            \"avatar\": \"https://reqres.in/img/faces/12-image.jpg\"\n        }\n    ],\n    \"support\": {\n        \"url\": \"https://reqres.in/#support-heading\",\n        \"text\": \"To keep ReqRes free, contributions towards server costs are appreciated!\"\n    }\n}","statusCode":200},"precondition":false,"level":3}]}]}]},{"number":6,"description":"Then valida la respuesta con los siguientes datos\r\n| nombre | apellido | genero | email |\r\n| Cara | Gaylord | female | vfriesen@example.net |","duration":183,"startTime":"2021-02-19T17:14:57.768-05:00[America/Bogota]","result":"SUCCESS","precondition":false,"level":0,"children":[{"number":7,"description":"Deberia ver la siguiente respuesta: ","duration":45,"startTime":"2021-02-19T17:14:57.904-05:00[America/Bogota]","result":"SUCCESS","precondition":false,"level":1}]}],"userStory":{"id":"servicio-rest","storyName":"Servicio Rest","path":"src/test/resources/features/servicio_rest.feature","narrative":"  El Usuario quiere hacer una peticion a un servicio rest\n  y validar la respuesta esperada","type":"feature"},"featureTag":{"name":"Features/Servicio Rest","type":"feature","displayName":"Features/Servicio Rest"},"title":"Servicio Rest","tags":[{"name":"Servicio Rest","type":"feature","displayName":"Servicio Rest"}],"startTime":"2021-02-19T17:14:52.461-05:00[America/Bogota]","duration":5491,"projectKey":"","isManualTestingUpToDate":false,"manual":false,"testSource":"Cucumber","actors":[{"name":"usuario","can":["call an API at https://reqres.in"]}],"result":"SUCCESS"}