{"name":"Verificar la lista de usuarios en la api regres","id":"lista-de-usuarios;verificar-la-lista-de-usuarios-en-la-api-regres","testSteps":[{"number":1,"description":"Given conecta con el servicio para consultar los usuarios","duration":176,"startTime":"2021-02-19T19:12:47.662-05:00[America/Bogota]","result":"SUCCESS","precondition":false,"level":0},{"number":2,"description":"When consulta los usuarios por pagina","duration":4923,"startTime":"2021-02-19T19:12:47.843-05:00[America/Bogota]","result":"SUCCESS","precondition":false,"level":0,"children":[{"number":3,"description":"Usuario realizar consulta de lista de usuarios","duration":4362,"startTime":"2021-02-19T19:12:48.402-05:00[America/Bogota]","result":"SUCCESS","precondition":false,"level":1,"children":[{"number":4,"description":"usuario executes a GET on the resource /api/users?page\u003d2","duration":4314,"startTime":"2021-02-19T19:12:48.446-05:00[America/Bogota]","result":"SUCCESS","precondition":false,"level":2,"children":[{"number":5,"description":"GET https://reqres.in/api/users?page\u003d2\r","duration":0,"startTime":"2021-02-19T19:12:52.759-05:00[America/Bogota]","result":"SUCCESS","restQuery":{"method":"GET","path":"https://reqres.in/api/users?page\u003d2\r","content":"\r","contentType":"null","requestHeaders":"Accept\u003d*/*\r","requestCookies":"\r","responseHeaders":"Date: Sat, 20 Feb 2021 00:12:52 GMT\r\nContent-Type: application/json; charset\u003dutf-8\r\nTransfer-Encoding: chunked\r\nConnection: keep-alive\r\nSet-Cookie: __cfduid\u003dd529be4fd898e144d5cc41f2f9019a7731613779972; expires\u003dMon, 22-Mar-21 00:12:52 GMT; path\u003d/; domain\u003d.reqres.in; HttpOnly; SameSite\u003dLax; Secure\r\nX-Powered-By: Express\r\nAccess-Control-Allow-Origin: *\r\nEtag: W/\"406-ut0vzoCuidvyMf8arZpMpJ6ZRDw\"\r\nVia: 1.1 vegur\r\nCache-Control: max-age\u003d14400\r\nCF-Cache-Status: HIT\r\nAge: 4850\r\ncf-request-id: 085e6147d30000129b049c2000000001\r\nExpect-CT: max-age\u003d604800, report-uri\u003d\"https://report-uri.cloudflare.com/cdn-cgi/beacon/expect-ct\"\r\nReport-To: {\"endpoints\":[{\"url\":\"https:\\/\\/a.nel.cloudflare.com\\/report?s\u003d%2F9vaoV7zGsligHpNddj4JitJ3atJlPvHlfahtbenb7HFOljFfrYfdKHJFCT7MXkgfdTtTLZH0mTjSpWe5%2BKMW7jYOwhYwxtkoCE%3D\"}],\"group\":\"cf-nel\",\"max_age\":604800}\r\nNEL: {\"max_age\":604800,\"report_to\":\"cf-nel\"}\r\nVary: Accept-Encoding\r\nServer: cloudflare\r\nCF-RAY: 624404b9581b129b-MIA\r\nContent-Encoding: gzip\r","responseCookies":"__cfduid\u003dd529be4fd898e144d5cc41f2f9019a7731613779972;Path\u003d/;Domain\u003d.reqres.in;Secure;HttpOnly;Expires\u003d22/03/21 0:12\r","responseBody":"{\n    \"page\": 2,\n    \"per_page\": 6,\n    \"total\": 12,\n    \"total_pages\": 2,\n    \"data\": [\n        {\n            \"id\": 7,\n            \"email\": \"michael.lawson@reqres.in\",\n            \"first_name\": \"Michael\",\n            \"last_name\": \"Lawson\",\n            \"avatar\": \"https://reqres.in/img/faces/7-image.jpg\"\n        },\n        {\n            \"id\": 8,\n            \"email\": \"lindsay.ferguson@reqres.in\",\n            \"first_name\": \"Lindsay\",\n            \"last_name\": \"Ferguson\",\n            \"avatar\": \"https://reqres.in/img/faces/8-image.jpg\"\n        },\n        {\n            \"id\": 9,\n            \"email\": \"tobias.funke@reqres.in\",\n            \"first_name\": \"Tobias\",\n            \"last_name\": \"Funke\",\n            \"avatar\": \"https://reqres.in/img/faces/9-image.jpg\"\n        },\n        {\n            \"id\": 10,\n            \"email\": \"byron.fields@reqres.in\",\n            \"first_name\": \"Byron\",\n            \"last_name\": \"Fields\",\n            \"avatar\": \"https://reqres.in/img/faces/10-image.jpg\"\n        },\n        {\n            \"id\": 11,\n            \"email\": \"george.edwards@reqres.in\",\n            \"first_name\": \"George\",\n            \"last_name\": \"Edwards\",\n            \"avatar\": \"https://reqres.in/img/faces/11-image.jpg\"\n        },\n        {\n            \"id\": 12,\n            \"email\": \"rachel.howell@reqres.in\",\n            \"first_name\": \"Rachel\",\n            \"last_name\": \"Howell\",\n            \"avatar\": \"https://reqres.in/img/faces/12-image.jpg\"\n        }\n    ],\n    \"support\": {\n        \"url\": \"https://reqres.in/#support-heading\",\n        \"text\": \"To keep ReqRes free, contributions towards server costs are appreciated!\"\n    }\n}","statusCode":200},"precondition":false,"level":3}]}]}]},{"number":6,"description":"Then valida el codigo de respuesta para la consulta","duration":174,"startTime":"2021-02-19T19:12:52.768-05:00[America/Bogota]","result":"SUCCESS","precondition":false,"level":0,"children":[{"number":7,"description":"Deberia ver la siguiente respuesta: ","duration":40,"startTime":"2021-02-19T19:12:52.900-05:00[America/Bogota]","result":"SUCCESS","precondition":false,"level":1}]}],"userStory":{"id":"lista-de-usuarios","storyName":"Lista de usuarios","path":"src/test/resources/features/lista_de_usuarios.feature","narrative":"  El Usuario requiere verificar la correcta funcionalidad de la peticion de listar los usuarios\n  y validar la respuesta esperada","type":"feature"},"featureTag":{"name":"Features/Lista de usuarios","type":"feature","displayName":"Features/Lista de usuarios"},"title":"Verificar la lista de usuarios en la api regres","tags":[{"name":"Lista de usuarios","type":"feature","displayName":"Lista de usuarios"}],"startTime":"2021-02-19T19:12:47.396-05:00[America/Bogota]","duration":5547,"projectKey":"","isManualTestingUpToDate":false,"manual":false,"testSource":"Cucumber","actors":[{"name":"usuario","can":["call an API at https://reqres.in"]}],"result":"SUCCESS"}